group_id,user_name,in_degree_centrality,out_degree_centrality,closeness_centrality,betweenness_centrality
2016twgss3bgp1,LIM JIA HUI,0.75,1.0,0.1,0.7479683123249299
2016twgss3bgp1,LAI LILIAN,0.0,0.0,0.1,6.54310847539098
2016twgss3bgp1,CHENG HIU LAM,0.75,0.5,0.17391304347826086,1.348749940416607
2016twgss3bgp1,LEE MEI CHING,0.0,0.0,0.1,4.376194516636296
2016twgss3bgp1,YEE CHEUK MAN,0.75,0.75,0.12903225806451613,0.12332332332332331
2016twgss3bgp5,CHEUNG HO WAI,0.75,0.75,0.12903225806451613,0.629754484609294
2016twgss3bgp5,CHAN SHU KAI,1.5,1.75,0.1,0.9973431796961207
2016twgss3bgp5,CHANG SO YAN,0.5,0.25,0.4,1.0753677962250676
2016twgss3bgp5,TAM SZE WAI,0.25,0.25,0.17391304347826086,1.989059934318555
2016twgss3bgp5,CHAN PAK YU,0.25,0.25,0.25,1.0805555555555555
2016twgss3agp7,CHAN ETHAN SIYAN,0.0,0.0,0.1,4.7849927849927845
2016twgss3agp7,FU CHUNG YAN,0.6666666666666666,0.3333333333333333,0.23076923076923078,0.28373015873015867
2016twgss3agp7,LEUNG YUEN KWAN CONNIE,0.6666666666666666,1.0,0.1,0.6825311942959
2016twgss3agp7,TSUI CHEUK SUM SAM,2.0,2.0,0.14285714285714285,0.07142857142857142
2016twgss3agp2,NG CHUN MING,0.25,0.25,0.12903225806451613,2.213768115942029
2016twgss3agp2,LAM KIT,0.25,0.25,0.25,3.374895477904423
2016twgss3agp2,CHAN LAI HIM,0.25,0.5,0.12903225806451613,2.141304347826087
2016twgss3agp2,LI OI KAN CHRISTINE,0.25,0.25,0.17391304347826086,1.5974900892066421
2016twgss3agp2,YEUNG YAT CHING,0.75,0.5,0.4,1.06755291887553
2016twgss3agp3,LAM YAN HO,0.75,0.75,0.25,0.4431029496818971
2016twgss3agp3,LEE WING IN,0.25,0.25,0.17391304347826086,0.9237919782297197
2016twgss3agp3,CHUNG WAI FUN,0.5,0.75,0.1,1.9056675210266918
2016twgss3agp3,WU YIPENG,0.25,0.25,0.12903225806451613,1.8844175926924873
2016twgss3agp3,LAI WING MAN JASMINE,0.5,0.25,0.4,0.6762279160230971
2016twgss3agp4,CHAN WING HANG,1.25,1.25,0.25,0.5467861305361303
2016twgss3agp4,LAI SHUN HEI,0.5,0.5,0.2857142857142857,0.6047008547008546
2016twgss3agp4,LAM SUET KEI,0.25,0.0,0.5,1.4168630751964084
2016twgss3agp4,YIU SING YI,0.5,0.5,0.25,0.7657122507122507
2016twgss3agp4,LAM HANG PUI,0.5,0.75,0.25,0.8763122294372293
2016twgss3agp5,LEE TAK YU,5.0,6.0,0.18604651162790697,0.10416666666666666
2016twgss3agp5,YEUNG WING SUM,1.75,1.75,0.19199999999999998,0.125
2016twgss3agp5,LAM WING TSUN,0.75,0.5,0.5274725274725275,2.325595238095238
2016twgss3agp5,LEE PUI YU,3.75,3.0,0.194331983805668,0.10416666666666666
2016twgss3agp5,LAM SHEK FUNG,1.25,1.25,0.294478527607362,1.4333333333333331
2016twgss3agp6,CHENG YUEN YEE,0.25,0.25,0.17391304347826086,0.7416225749559083
2016twgss3agp6,POON KA YIU,0.0,0.25,0.1,2.9515371650452296
2016twgss3agp6,YAN MAN KIT,0.25,0.25,0.12903225806451613,2.5766811742618194
2016twgss3agp6,CHAU CHUN TUNG,0.5,0.25,0.4,0.16512345679012344
2016twgss3agp6,CHIU KA OI,0.25,0.25,0.25,0.6689299226261591
2016twgss3agp8,LEE KA CHING,1.0,1.0,0.14285714285714285,0.29583333333333334
2016twgss3agp8,CHEUK YUEN TING,1.0,0.6666666666666666,0.5,0.6365079365079365
2016twgss3agp8,WONG PUI YING,0.3333333333333333,0.3333333333333333,0.23076923076923078,2.7301587301587302
2016twgss3agp8,YIP KIN TING,0.6666666666666666,1.0,0.1,1.1999999999999997
2016twgss3bgp8,LUK MAN KA,0.6666666666666666,0.3333333333333333,0.25,0.5
2016twgss3bgp8,O KA ON,0.0,0.3333333333333333,0.1,1.9476190476190478
2016twgss3bgp8,LAI CHUNG LING,0.0,0.0,0.1,3.6583333333333337
2016twgss3bgp8,KOON NAM AMY,1.0,1.0,0.23076923076923078,0.041666666666666664
2016twgss3agp1,CHOW CHING YIN,2.25,2.5,0.6666666666666666,0.06018518518518518
2016twgss3agp1,LEUNG HEI YAN,2.75,2.75,0.6666666666666666,0.13055555555555556
2016twgss3agp1,LEE TSZ CHING,0.75,0.75,0.5333333333333333,1.7166666666666668
2016twgss3agp1,CHAN KWUN YAU,1.0,1.0,0.8,0.30833333333333335
2016twgss3agp1,TSUI TSZ CHING,1.25,1.0,0.8,0.9009259259259258
2016twgss3cgp4,YU YAN TING,4.5,5.75,0.27906976744186046,0.1111111111111111
2016twgss3cgp4,TSUI HOI WAI,4.75,4.0,0.34285714285714286,0.0
2016twgss3cgp4,TAN YINGXIN,0.0,0.0,0.1,5.074565498714105
2016twgss3cgp4,CHAN NGAI FUNG,0.25,0.25,0.29268292682926833,1.4105392156862744
2016twgss3cgp4,KAN KA LAI,3.75,3.25,0.32432432432432434,0.6092592592592592
2016twgss2cgp7,NG YUET HEI,11.666666666666666,12.666666666666666,2.831460674157304,0.25
2016twgss2cgp7,LAU CHUNG YI,8.333333333333332,7.666666666666666,3.8297872340425534,0.0
2016twgss2cgp7,LEE TSZ KIU,20.666666666666664,22.0,3.7058823529411766,0.08333333333333333
2016twgss2cgp7,LEUNG YI LAM,9.0,7.333333333333333,6.631578947368422,0.0
2016twgss3cgp1,CHEUNG HO YING,3.333333333333333,6.0,0.1,0.6194444444444444
2016twgss3cgp1,LAM WING TUNG,11.666666666666666,9.0,0.14906832298136646,0.5026455026455026
2016twgss3cgp1,TAM SIN MAN,0.0,0.0,0.1,2.8273268398268394
2016twgss3cgp1,TING HO CHING,0.0,0.0,0.1,2.323896103896104
2016twgss3bgp7,CHAN HIU WAI,5.0,5.333333333333333,1.2857142857142858,0.5
2016twgss3bgp7,SAIR WING SUM,16.333333333333332,16.333333333333332,1.0588235294117647,0.1111111111111111
2016twgss3bgp7,YIM MAN TING,4.666666666666666,4.0,1.8000000000000003,0.0
2016twgss3bgp7,KO KAM TIM,0.6666666666666666,1.0,0.1,2.0555555555555554
2016twgss2cgp2,NG KAI HEI,0.0,0.0,0.1,6.5
2016twgss2cgp2,CHEUNG HOI NING,8.0,10.333333333333332,0.2748091603053435,0.0
2016twgss2cgp2,YEUNG WING LAM,4.0,3.333333333333333,0.28125,0.0
2016twgss2cgp2,YICK LING HO,7.666666666666666,6.0,0.28708133971291866,0.0
2016twgss2cgp3,TSANG SIN MEI,3.0,3.0,1.2857142857142858,0.16666666666666666
2016twgss2cgp3,LEE MEI LING,6.0,3.333333333333333,2.9032258064516134,0.16666666666666666
2016twgss2cgp3,LO WING YAN,8.0,10.333333333333332,0.9000000000000001,0.38888888888888884
2016twgss2cgp3,CHU HIU YING,4.333333333333333,4.666666666666666,1.5789473684210527,0.0
2016twgss2cgp5,TAM WING KA,4.0,4.666666666666666,1.2857142857142858,0.0
2016twgss2cgp5,LUNG FONG,2.6666666666666665,2.333333333333333,1.3846153846153848,0.5
2016twgss2cgp5,WONG WAI SHUEN,4.666666666666666,4.333333333333333,2.5714285714285716,0.0
2016twgss2cgp5,WONG HAU YI,8.0,8.0,1.8000000000000003,0.08333333333333333
2016twgss2cgp9,CHAN LEONG CHEONG,9.0,9.0,2.5714285714285716,0.0
2016twgss2cgp9,LEUNG PAK HONG,4.666666666666666,6.333333333333333,1.3846153846153848,0.25
2016twgss2cgp9,NG PAK YIN,4.333333333333333,3.0,2.5714285714285716,0.0
2016twgss2cgp9,CHAN CHI FAI,9.666666666666666,9.333333333333332,2.25,0.0
2016twgss2agp1,YU WAI YIP,0.25,0.5,0.1,1.3758704469489267
2016twgss2agp1,FAN TSZ WAN,2.5,2.25,0.17391304347826086,0.293556014486247
2016twgss2agp1,YU CHUN KWAN,1.75,1.75,0.12903225806451613,0.8165503565247596
2016twgss2agp1,HUI WING LAM,0.0,0.0,0.1,2.9002428916222023
2016twgss2agp1,WONG PO TAI,0.25,0.25,0.1,0.5630757039657968
2016twgss2agp3,WONG WAI SZE,0.25,0.5,0.12903225806451613,0.8131313131313131
2016twgss2agp3,YIM CHI HON,0.25,0.25,0.1,1.0758429269143552
2016twgss2agp3,YIP WAI LAM,1.25,1.0,0.17391304347826086,1.2454938525526762
2016twgss2agp3,LEE CHAK MAN,0.25,0.25,0.12903225806451613,0.7525252525252524
2016twgss2agp3,YIP SIU CHI,0.25,0.25,0.1,1.581614645858343
2016twgss2agp5,CHAN TSZ YAN,2.0,2.0,0.13245033112582782,0.18371212121212122
2016twgss2agp5,DU CHEUK FUNG,2.25,2.0,0.18181818181818182,0.1433982683982684
2016twgss2agp5,YEUNG YUET HEI,0.5,0.25,0.4444444444444444,0.5601851851851851
2016twgss2agp5,CHAN HOI YI,0.25,0.25,0.26666666666666666,2.2534391534391536
2016twgss2agp5,LAM CHING HEI,7.5,8.0,0.1322314049586777,0.5182720057720058
2016twgss2agp6,LEUNG HEI MAN,4.333333333333333,4.0,1.7142857142857142,0.41666666666666663
2016twgss2agp6,HO PARK YIN,2.333333333333333,2.333333333333333,1.25,0.41666666666666663
2016twgss2agp6,LI SHING YUK,1.3333333333333333,1.3333333333333333,1.3636363636363635,0.4444444444444444
2016twgss2agp6,LEUNG HEI YUE,2.333333333333333,2.6666666666666665,1.3333333333333333,0.2222222222222222
2016twgss2agp7,LEUNG TSZ KIU,2.5,2.75,0.7272727272727273,0.0
2016twgss2agp7,LI KA HO,1.5,1.25,1.1428571428571428,0.0
2016twgss2agp7,LAM STEPHANIE TSZ WING,2.0,2.0,0.8888888888888888,0.3333333333333333
2016twgss2agp7,YIU YU YEUNG,3.75,3.75,0.8888888888888888,1.0416666666666665
2016twgss2agp7,YUNG MING YIN,2.0,2.0,0.7272727272727273,0.6666666666666666
2016twgss2agp8,WONG HOI CHUN,0.5,0.5,0.5,0.10416666666666666
2016twgss2agp8,CHAN KING HEI,0.5,0.5,0.4444444444444444,2.042296918767507
2016twgss2agp8,YEUNG CHEUK HIN,0.5,0.5,0.5714285714285714,0.7083333333333333
2016twgss2agp8,FONG HUI WANG,0.25,0.25,0.5,2.663333333333333
2016twgss2agp8,CHAN YIN KA,2.25,2.25,0.8,0.03333333333333333
2016twgss3cgp8,LAM HIN NOK,0.5,0.5,0.1,0.42521265719759005
2016twgss3cgp8,CHAN SHU FAI,0.0,0.0,0.1,2.5575177640395035
2016twgss3cgp8,CHAN HAU TUNG,0.0,0.0,0.1,2.7503970620249687
2016twgss3cgp8,YAU SIN YAN,0.0,0.0,0.1,3.4136179400211724
2016twgss3cgp8,HUNG HIN TAI,0.0,0.0,0.1,1.8573006784416182
2016twgss2bgp5,CHAN HAU MAN,0.0,0.0,0.1,2.8095238095238093
2016twgss2bgp5,LIE SIN YI,16.0,16.0,0.1485148514851485,0.1259469696969697
2016twgss2bgp5,YUNG KA HEI,1.6666666666666665,1.6666666666666665,0.1485148514851485,0.5
2016twgss2bgp5,YUNG WING TUNG,0.0,0.0,0.1,3.8505892255892253
2016twgss2bgp6,WONG YAN YU,0.0,0.3333333333333333,0.1,1.5757575757575757
2016twgss2bgp6,LAU YAN TUNG,1.3333333333333333,1.0,0.14285714285714285,0.4941558441558441
2016twgss2bgp6,KO KAM FUNG,0.0,0.0,0.1,2.3217194570135744
2016twgss2bgp6,WONG KWAN LOK,0.0,0.0,0.1,1.9952795933188088
2016twgss1bgp1,TAM CHEUK YI,0.0,0.0,0.1,1.782323232323232
2016twgss1bgp1,CHAN NGA LAM,0.0,0.0,0.1,2.7428571428571424
2016twgss1bgp1,LI SARAH,0.3333333333333333,0.0,0.14285714285714285,1.534965034965035
2016twgss1bgp1,HO YU TO,0.6666666666666666,1.0,0.1,0.19696969696969696
2016twgss1bgp2,LI TIM YEE,0.3333333333333333,1.6666666666666665,0.1,0.5625
2016twgss1bgp2,MAN YUK,3.0,2.0,0.2647058823529412,0.0
2016twgss1bgp2,LI SUM WAI,0.0,0.0,0.1,3.701754385964912
2016twgss1bgp2,CHEUNG TSZ YEUNG,0.6666666666666666,0.3333333333333333,0.25,0.5
2016twgss1bgp4,MA CHUN HOI HEWIS,0.3333333333333333,0.0,0.14285714285714285,1.3883838383838383
2016twgss1bgp4,YAU CHUN YU BENSON,0.6666666666666666,1.0,0.1,0.8885732323232323
2016twgss1bgp4,CHEN LOK YIU,0.0,0.0,0.1,0.9242424242424241
2016twgss1bgp4,FOK HIU TUNG,0.0,0.0,0.1,2.21067821067821
2016twgss1bgp7,TSO CHUNG MAN,2.0,4.0,1.0,0.0
2016twgss1bgp7,TSOI CHEUK WANG JEREMY,3.6666666666666665,3.333333333333333,1.2,0.0
2016twgss1bgp7,CHENG KA YI,0.3333333333333333,0.3333333333333333,0.6666666666666666,3.3888888888888884
2016twgss1bgp7,WU LOK CHING,4.333333333333333,2.6666666666666665,1.2352941176470589,0.33888888888888885
2016twgss1bgp9,LI CHUN FOON CHRIS,8.666666666666666,7.333333333333333,0.14906832298136646,0.0
2016twgss1bgp9,CHAN PO YIN,0.0,0.0,0.1,3.9176564176564175
2016twgss1bgp9,CHAN LOK MAN,3.0,4.333333333333333,0.14814814814814814,0.1746880570409982
2016twgss1bgp9,LAU WING LAM,0.0,0.0,0.1,3.1645502645502646
2016twgss1agp2,YU KAI LAM KARL,1.6666666666666665,1.3333333333333333,1.2,0.08928571428571427
2016twgss1agp2,HUANG WAI SHING,0.6666666666666666,1.3333333333333333,0.75,0.1455026455026455
2016twgss1agp2,HUANG TSZ NING,0.0,0.6666666666666666,0.1,3.5555555555555554
2016twgss1agp2,CHAN CHING WAI,7.333333333333333,6.333333333333333,2.0,0.0
2016twgss1agp5,SO NICOLAS,9.0,9.666666666666666,1.7307692307692306,0.0
2016twgss1agp5,LAU HO LAM TRISH,17.666666666666664,15.666666666666666,2.1951219512195124,0.0
2016twgss1agp5,YU TIN CHEUNG,0.6666666666666666,0.6666666666666666,0.9473684210526315,2.6666666666666665
2016twgss1agp5,CHEN YIN LAM CHRISTINA,4.666666666666666,6.0,1.7647058823529411,0.0625
2016twgss1agp6,LAM SIN YU,0.0,0.0,0.1,5.21111111111111
2016twgss1agp6,FONG TSZ LUN,5.333333333333333,5.0,0.2727272727272727,0.0
2016twgss1agp6,LAM MAN LEI,3.6666666666666665,3.333333333333333,0.2608695652173913,0.0
2016twgss1agp6,CHU CHEUK TING,2.333333333333333,3.0,0.2608695652173913,0.0
2016twgss1agp7,TANG JUN YEUNG,0.0,0.0,0.1,1.961229946524064
2016twgss1agp7,TO KA MING,1.6666666666666665,1.3333333333333333,0.14285714285714285,0.5026455026455026
2016twgss1agp7,LING TSZ CHING,4.333333333333333,4.666666666666666,0.1,1.2561423054070113
2016twgss1agp7,YIM TSZ KIU,0.0,0.0,0.1,1.9952795933188088
2016twgss1cgp4,CHAU HAU CHUN,1.0,0.6666666666666666,0.9375,0.125
2016twgss1cgp4,YU TSZ WING,7.333333333333333,7.333333333333333,0.9375,0.0
2016twgss1cgp4,CHAN TSZ KA,0.3333333333333333,0.3333333333333333,0.6818181818181818,2.833333333333333
2016twgss1cgp4,YANG ZIHAN JANE,7.0,7.333333333333333,0.8333333333333333,0.6666666666666666
2016twgss1cgp8,CHEN LAT SUDEN,6.0,7.0,1.6363636363636365,0.0
2016twgss1cgp8,TUNG CHEUK KA,1.3333333333333333,0.6666666666666666,1.3432835820895521,1.0277777777777777
2016twgss1cgp8,FUNG YAU TONG,1.0,1.0,1.2,1.8333333333333333
2016twgss1cgp8,NG YIN LING,2.333333333333333,2.0,1.5517241379310345,0.25
2016twgss1cgp9,CHAN PO KI,4.666666666666666,4.333333333333333,1.5,0.0
2016twgss1cgp9,WONG HO FUNG,2.0,2.6666666666666665,1.2,0.3055555555555555
2016twgss1cgp9,CHEUNG WING KI,1.6666666666666665,1.6666666666666665,1.2857142857142858,0.3055555555555555
2016twgss1cgp9,LEE PUI CHAK,2.333333333333333,2.0,1.2,0.05555555555555555
2016twgss2dgp5,FONG PAK HO,0.0,0.0,0.1,3.9677685044737325
2016twgss2dgp5,TO LUN,0.0,0.0,0.1,1.2006164058795636
2016twgss2dgp5,CHAN MEI LING,0.0,0.0,0.1,2.8509081024997833
2016twgss2dgp5,YUE SHEUNG HANG,0.75,0.75,0.1,0.8594152046783625
2016twgss2dgp5,WANG SIN YEE,0.0,0.0,0.1,2.4074066126017124
2016twgss1dgp3,MAK WING HEI ADRIAN,1.3333333333333333,0.6666666666666666,0.25,0.04814814814814814
2016twgss1dgp3,SHI CHING MAN,0.6666666666666666,0.3333333333333333,0.14285714285714285,0.75
2016twgss1dgp3,TSO TSZ FUNG,0.6666666666666666,1.3333333333333333,0.1,0.0
2016twgss1dgp3,NG PUI YU,0.0,0.3333333333333333,0.1,4.055555555555555
2016twgss1dgp4,LEUNG HOYA,5.666666666666666,3.0,0.2702702702702703,0.0
2016twgss1dgp4,LAU CHUN HING,9.333333333333332,12.333333333333332,0.2608695652173913,0.0
2016twgss1dgp4,CHAN HEI YU,1.3333333333333333,1.0,0.2608695652173913,0.0
2016twgss1dgp4,KUANG MAN CHING,0.0,0.0,0.1,6.5
2016twgss1dgp6,LO TSZ YUET,0.0,0.0,0.1,1.652777777777778
2016twgss1dgp6,AU-YEUNG YING WENDY,1.3333333333333333,1.6666666666666665,0.1,0.4702380952380952
2016twgss1dgp6,CHOY HIU FUNG RONALD,0.0,0.0,0.1,2.5867676767676766
2016twgss1dgp6,CHAN HO CHUN,0.3333333333333333,0.0,0.14285714285714285,0.9285714285714285
2016twgss1dgp8,CHING CHEUK YAN,0.6666666666666666,1.3333333333333333,0.8571428571428571,0.5
2016twgss1dgp8,LAU WING YO,4.333333333333333,3.6666666666666665,1.2,0.16666666666666666
2016twgss1dgp8,LIU SHARON,1.3333333333333333,1.3333333333333333,0.8571428571428571,0.027777777777777776
2016twgss1dgp8,CHEUNG CHEUK HEI,0.3333333333333333,0.3333333333333333,0.6666666666666666,2.2777777777777777
2016twgss2agp2,CHENG CHIN PAK,0.3333333333333333,0.6666666666666666,0.1,1.5999999999999999
2016twgss2agp2,MA HO YI CELIA,1.3333333333333333,1.3333333333333333,0.7500000000000001,0.375
2016twgss2agp2,LEE HOI TUNG,2.333333333333333,2.333333333333333,0.8571428571428571,0.3333333333333333
2016twgss2agp2,POON CHEUK YIN,1.6666666666666665,1.3333333333333333,0.9000000000000001,0.06666666666666667
2016twgss2agp4,LEE YUET YI SOPHIE,0.6666666666666666,0.3333333333333333,0.23076923076923078,0.2518518518518518
2016twgss2agp4,HO CHUN CHEONG,0.0,0.0,0.1,3.423809523809523
2016twgss2agp4,LAU CHAK CHO,1.0,1.3333333333333333,0.1,0.9476911976911975
2016twgss2agp4,CHEUNG WANG KIT,0.6666666666666666,0.6666666666666666,0.14285714285714285,0.5158730158730158
2016twgss2bgp4,TSUI MAN YI MAGGIE,1.3333333333333333,1.3333333333333333,0.1,0.3277777777777778
2016twgss2bgp4,PANG COLIN,0.0,0.0,0.1,2.963655788655789
2016twgss2bgp4,NG DICK SAN,0.0,0.0,0.1,1.3846153846153844
2016twgss2bgp4,LUK KA YING,0.0,0.0,0.1,0.9545454545454546
2016twgss1agp3,YUNG KWOK WA,3.333333333333333,3.333333333333333,0.2608695652173913,0.0
2016twgss1agp3,LEE KIT YI,1.0,0.6666666666666666,0.2608695652173913,0.37777777777777777
2016twgss1agp3,LO WAI NAM,0.3333333333333333,0.6666666666666666,0.23076923076923078,0.5
2016twgss1agp3,NG LOK MAN,0.0,0.0,0.1,3.3611111111111107
2016twgss2cgp8,MOK WING SUM,1.0,1.0,0.25,0.0
2016twgss2cgp8,LEUNG WING HEI AVRIL,2.333333333333333,2.6666666666666665,0.23076923076923078,0.0
2016twgss2cgp8,TANG HANNAH,0.6666666666666666,0.6666666666666666,0.23076923076923078,0.6388888888888888
2016twgss2cgp8,NG CHUNG YIN,4.333333333333333,4.0,0.6,0.8888888888888888
2016twgss1bgp5,CHEUNG LOK YI,0.6666666666666666,0.6666666666666666,0.14285714285714285,0.14393939393939392
2016twgss1bgp5,CHAN KA WAI,1.0,1.0,0.14285714285714285,0.22916666666666666
2016twgss1bgp5,CHEUNG HO YEUNG,0.0,0.0,0.1,4.008225108225108
2016twgss1bgp5,SIO KA HEY,0.6666666666666666,0.6666666666666666,0.1,0.6916666666666667
2016twgss1bgp6,NG CHIN YING,5.0,3.333333333333333,0.2631578947368421,0.23809523809523808
2016twgss1bgp6,LEE CHEUK KI,0.0,0.3333333333333333,0.1,2.6277777777777773
2016twgss1bgp6,HO CHI WANG,0.6666666666666666,0.6666666666666666,0.1,1.357142857142857
2016twgss1bgp6,LAM TSZ YING,1.0,2.333333333333333,0.14285714285714285,0.23333333333333334
2016twgss1bgp8,PUN HOI YAM,4.666666666666666,3.6666666666666665,1.5,0.13888888888888887
2016twgss1bgp8,LEUNG HO SUM,3.333333333333333,3.6666666666666665,1.2,0.0
2016twgss1bgp8,TSANG CHEUK NAM,1.0,1.3333333333333333,0.6,1.0555555555555554
2016twgss1bgp8,TING HIU FAI,0.3333333333333333,0.6666666666666666,0.75,1.8888888888888886
2016twgss1cgp3,NG KA MAN,1.0,0.6666666666666666,0.5,0.18333333333333335
2016twgss1cgp3,KUNG KAI SHENG,0.3333333333333333,0.3333333333333333,0.14285714285714285,1.8196969696969696
2016twgss1cgp3,TANG LOK KI,0.6666666666666666,1.0,0.1,1.695833333333333
2016twgss1cgp3,YEUNG WING SUM,1.0,1.0,0.23076923076923078,0.05
2016twgss1dgp1,CHEUNG YING,0.0,0.0,0.1,3.4980125138019873
2016twgss1dgp1,WONG WING YAN,0.0,0.0,0.1,0.7878787878787878
2016twgss1dgp1,LIU ZHENYU,0.0,0.0,0.1,1.962962962962963
2016twgss1dgp1,CHEUK HOI YAN,5.333333333333333,5.333333333333333,0.1,0.21944444444444444
2016twgss2bgp3,KWOK CHUI YING AMY,1.0,0.3333333333333333,0.14634146341463414,0.2592592592592592
2016twgss2bgp3,LIN JESSE,1.3333333333333333,2.0,0.1,0.0
2016twgss2bgp3,YEUNG KING MAN GORDAN,0.6666666666666666,0.6666666666666666,0.1,1.664021164021164
2016twgss2bgp3,FUH YEE HIM TIMOTHY,4.333333333333333,4.333333333333333,0.1,1.5914021164021164
2016twgss3cgp2,CHAN SUET LAAM,1.0,1.5,1.2631578947368423,1.0999999999999999
2016twgss3cgp2,TANG CHUN KIT,1.25,0.75,1.2000000000000002,0.6
2016twgss3cgp2,LO SUET WING,2.5,2.25,1.9200000000000004,0.125
2016twgss3cgp2,LEUNG HAYLEY,1.5,1.25,1.411764705882353,0.19305555555555554
2016twgss3cgp2,CHAN YUK CHING,1.75,2.25,1.090909090909091,0.2222222222222222
2016twgss2bgp8,WOO HOI LING,0.0,0.0,0.1,4.149498327759197
2016twgss2bgp8,LAM POK HO,0.0,0.0,0.1,2.7058201058201057
2016twgss2bgp8,TAM CHING LAM,1.6666666666666665,1.6666666666666665,0.1,0.38611111111111107
2016twgss2bgp8,CHAN WAI KI,0.0,0.0,0.1,0.5
2016twgss3dgp4,LAU HONG YI,8.0,9.0,0.12903225806451613,0.09803921568627451
2016twgss3dgp4,TSO YUK LAM,0.25,0.25,0.12903225806451613,1.4765808516389012
2016twgss3dgp4,LO KA WAI KARY,0.0,0.0,0.1,7.057597797920268
2016twgss3dgp4,KOO KIN NAM,1.0,0.0,0.18604651162790697,1.1810657385708656
2016twgss3dgp4,WAN KWONG FAI,0.0,0.0,0.1,1.7444380241082627
2016twgss3dgp1,LAW PUI LAM,3.6666666666666665,3.6666666666666665,1.3333333333333333,0.3333333333333333
2016twgss3dgp1,HO MAN HOI,3.0,1.6666666666666665,2.0,1.0
2016twgss3dgp1,HO TING FAI,1.3333333333333333,1.6666666666666665,1.2,0.22222222222222224
2016twgss3dgp1,ZHAO JIAXI,2.6666666666666665,3.6666666666666665,0.8571428571428571,0.0
2016bsclasschngp4,Test2,0.0,0.0,0.1,9.331512317793871
2016bsclasschngp4,Heliangyi,1.6666666666666665,1.5,0.17647058823529413,0.8141349905279668
2016bsclasschngp4,Zhangshuhan,0.0,0.0,0.1,8.719438758394425
2016bsclasschngp4,Wangzihan,0.6666666666666666,0.6666666666666666,0.17391304347826086,2.8021993438686312
2016bsclasschngp4,Test1,0.0,0.0,0.1,5.3945219968409575
2016bsclasschngp4,Lixianer,5.0,5.166666666666666,0.1791044776119403,0.0906681205415514
2016bsclasschngp4,Huyihan,0.16666666666666666,0.16666666666666666,0.16901408450704225,3.7373384085129566
2016twgss1agp4,LEUNG CHING LONG,2.333333333333333,2.333333333333333,0.1,0.1111111111111111
2016twgss1agp4,LEE YAT KWAN HILLARY,0.0,0.0,0.1,1.3412698412698412
2016twgss1agp4,LEE YAN HANG,0.0,0.0,0.1,3.442612942612943
2016twgss1agp4,WONG CHUNG YAN,0.0,0.0,0.1,2.3866096866096864
2016twgss2bgp1,CHAN HILLARY,0.6666666666666666,0.6666666666666666,0.1,0.8518518518518517
2016twgss2bgp1,BAI YU,0.0,0.0,0.1,1.0
2016twgss2bgp1,LIU YAT FUNG,0.0,0.0,0.1,1.6851851851851851
2016twgss2bgp1,CHAN TSZ NGAI,0.0,0.0,0.1,1.8629629629629627
2016bsclasschngp1,Chenanhao,0.0,0.0,0.1,1.0578703703703702
2016bsclasschngp1,Luyuzhe,0.0,0.0,0.1,1.9503233392122277
2016bsclasschngp1,Liuxianzhu,0.0,0.0,0.1,2.128709156346274
2016bsclasschngp1,Luohanhui,3.0,3.0,0.1,0.7892475455903964
2016bsclasschngp1,Xiaoxinyi,0.0,0.0,0.1,3.2069891644481805
2016kyc4wgp1,梁嘉朗,1.3333333333333333,1.6666666666666665,0.1,1.8333333333333333
2016kyc4wgp1,杜逸浚,1.3333333333333333,1.3333333333333333,1.0,0.0
2016kyc4wgp1,鄭曉楠,5.0,5.333333333333333,1.125,0.08928571428571427
2016kyc4wgp1,陳卓誠,6.666666666666666,6.0,1.5,0.06547619047619047
2016kyc4wgp2,é™³å­æ’,1.0,1.0,0.8571428571428571,0.08928571428571427
2016kyc4wgp2,曾紀然,1.6666666666666665,1.6666666666666665,1.0,0.06547619047619047
2016kyc4wgp2,呂銘鴻,0.3333333333333333,0.6666666666666666,0.1,1.8333333333333333
2016kyc4wgp2,å¼µè»’é½Š,8.333333333333332,8.0,1.0,0.0
2016kyc4wgp3,陳浩輝　,2.333333333333333,2.333333333333333,0.6,0.9629629629629629
2016kyc4wgp3,張永霖,0.6666666666666666,1.0,0.1,0.8749999999999998
2016kyc4wgp3,曾韋呈,2.6666666666666665,2.333333333333333,0.8571428571428571,0.42592592592592593
2016kyc4wgp3,麥子誠,3.333333333333333,3.333333333333333,1.0,0.0
2016kyc4wgp4,陳顥謙,10.0,9.333333333333332,1.6744186046511629,0.0
2016kyc4wgp4,吳展霆,6.666666666666666,7.333333333333333,1.2352941176470589,0.6111111111111112
2016kyc4wgp4,黃碩霆,1.0,1.0,0.7912087912087913,1.333333333333333
2016kyc4wgp4,朱嘉俊,10.666666666666666,10.666666666666666,1.411764705882353,0.0
2016kyc4wgp5,吳宇軒,7.666666666666666,8.333333333333332,0.7000000000000001,1.0055555555555555
2016kyc4wgp5,任富源,3.333333333333333,3.333333333333333,0.8235294117647058,0.45555555555555555
2016kyc4wgp5,徐偉恆,6.0,5.666666666666666,1.6800000000000002,0.0
2016kyc4wgp5,陳丞軒,19.0,18.666666666666664,1.6363636363636365,0.0
2016kyc4wgp6,成礎暉,8.333333333333332,8.666666666666666,1.7647058823529411,0.0
2016kyc4wgp6,游玿瑨,3.333333333333333,3.333333333333333,1.3636363636363635,0.41666666666666663
2016kyc4wgp6,陳祉銓,10.333333333333332,9.666666666666666,1.7142857142857142,0.08333333333333333
2016kyc4wgp6,簡嘉俊,10.0,10.333333333333332,1.7647058823529411,0.0
2016kyc4wgp7,陳宇瀚,5.333333333333333,5.0,2.25,0.0
2016kyc4wgp7,楊卓韜,11.666666666666666,12.0,1.7647058823529411,0.0
2016kyc4wgp7,羅羲倫,4.0,4.0,1.0,0.6944444444444443
2016kyc4wgp7,譚耀權,8.333333333333332,8.333333333333332,2.1951219512195124,0.13888888888888887
2016kyc4wgp8,嚴樂謙,5.333333333333333,5.333333333333333,2.142857142857143,0.08333333333333333
2016kyc4wgp8,周亦軒,8.666666666666666,9.666666666666666,2.5714285714285716,0.0
2016kyc4wgp8,鄧永彥,5.666666666666666,6.333333333333333,1.5365853658536588,0.41666666666666663
2016kyc4wgp8,梁晉僑,8.666666666666666,7.0,3.1500000000000004,0.08333333333333333
2016bsclasschngp3,Zengyaoyao,0.5,0.5,0.1,2.434775054540588
2016bsclasschngp3,Chenquanrui,0.0,0.0,0.1,4.650974403576905
2016bsclasschngp3,Test,0.0,0.0,0.1,5.293730082929075
2016bsclasschngp3,Zhangchen,0.0,0.0,0.1,4.177109161858745
2016bsclasschngp3,Wangxiaoming,0.0,0.0,0.1,1.9542479561755077
2016bsclasschngp3,Dengzhexi,0.0,0.0,0.1,5.495933698754829
2016bsclasschngp3,Zhangjinxuan,1.1666666666666665,1.1666666666666665,0.1,1.5442568699845807
2016kyc4cgp1,4c01,2.0,2.5,0.1,0.6582503281032692
2016kyc4cgp1,4c30,0.0,0.0,0.1,2.5485976601654308
2016kyc4cgp1,4c08,1.0,1.75,0.17777777777777778,0.33619768567297525
2016kyc4cgp1,4c23,0.25,0.0,0.25806451612903225,2.440337426194725
2016kyc4cgp1,4c15,4.25,3.25,0.19199999999999998,0.4477470786294315
2016kyc4cgp2,蔡頴軒,0.25,0.0,0.12903225806451613,3.33227115006776
2016kyc4cgp2,陳澤恒,0.5,0.5,0.1,0.7739300641754285
2016kyc4cgp2,黎行健,0.0,0.0,0.1,2.029336349924585
2016kyc4cgp2,余承澧,2.25,2.5,0.1,1.16018616603892
2016kyc4cgp2,麥森美,0.0,0.0,0.1,0.9713341858482523
2016kyc4cgp3,伍雄宏,1.0,1.3333333333333333,0.1,0.7527777777777778
2016kyc4cgp3,鍾昊霖,0.6666666666666666,1.0,0.1,1.5416666666666665
2016kyc4cgp3,陳子政　,1.6666666666666665,1.3333333333333333,0.14285714285714285,0.5357142857142857
2016kyc4cgp3,林浩宏,1.6666666666666665,1.3333333333333333,0.14285714285714285,0.28888888888888886
2016kyc4cgp4,冼兆祺,2.0,2.333333333333333,0.1,0.23809523809523805
2016kyc4cgp4,劉晁璋,0.3333333333333333,0.3333333333333333,0.1,2.064285714285714
2016kyc4cgp4,馮季平,2.333333333333333,2.0,0.23076923076923078,0.2566137566137566
2016kyc4cgp4,陳彥璋,2.333333333333333,2.333333333333333,0.14285714285714285,0.22916666666666666
2016kyc4cgp5,劉宇晞,3.0,2.6666666666666665,0.7500000000000001,1.0
2016kyc4cgp5,周豫賢,2.0,2.0,0.8571428571428571,0.25
2016kyc4cgp5,康栢浩,2.0,1.6666666666666665,0.8571428571428571,0.5833333333333333
2016kyc4cgp5,胡樂軒,3.333333333333333,4.0,0.8571428571428571,0.0
2016kyc4cgp6,孔樂笙,1.0,1.0,0.1,0.9452380952380951
2016kyc4cgp6,張君豪,1.3333333333333333,1.0,0.14754098360655735,0.38095238095238093
2016kyc4cgp6,李光皓,3.333333333333333,3.6666666666666665,0.14634146341463414,0.4285714285714285
2016kyc4cgp6,王毓謙,1.0,1.0,0.1,0.9452380952380951
2016kyc4cgp7,張龑,2.6666666666666665,2.6666666666666665,0.2727272727272727,0.0
2016kyc4cgp7,江孟溢,0.0,0.0,0.1,5.944444444444444
2016kyc4cgp7,盧永甄,2.333333333333333,2.0,0.2769230769230769,0.1111111111111111
2016kyc4cgp7,嚴穎嘉,2.0,2.333333333333333,0.26666666666666666,0.1875
2016bsclasschngp2,Liuhongshan,0.0,0.0,0.1,3.4928335162644686
2016bsclasschngp2,Dongfangxin,0.25,0.25,0.1,1.6874527999146376
2016bsclasschngp2,Zhoumofeng,0.0,0.0,0.1,0.7801813856675587
2016bsclasschngp2,Yangyahan,0.0,0.0,0.1,2.1074042039042604
2016bsclasschngp2,Luyanwei,0.0,0.0,0.1,0.8958333333333333
2016twgss1agp1,KUNG KA SHING,0.3333333333333333,0.6666666666666666,0.1,0.6333333333333333
2016twgss1agp1,WONG ON YEN,0.6666666666666666,0.3333333333333333,0.14285714285714285,0.19259259259259257
2016twgss1agp1,KWOK KUI KEI,0.0,0.0,0.1,2.988888888888889
2016twgss1agp1,LEE SUET LING,0.0,0.0,0.1,2.3196248196248193
2016twgss1agp8,YEUNG CHING TUNG,1.0,0.3333333333333333,0.75,1.0
2016twgss1agp8,LEUNG YI LOK,3.333333333333333,3.6666666666666665,0.2608695652173913,0.0
2016twgss1agp8,CHAN MAN WAAI,4.666666666666666,5.333333333333333,0.2608695652173913,0.0
2016twgss1agp8,TSUI WANG YUE,7.0,6.666666666666666,0.2608695652173913,0.5
2016twgss1bgp3,WONG TSZ YIU,0.0,0.0,0.1,5.018783068783068
2016twgss1bgp3,LAM KI FUNG,0.0,0.0,0.1,2.895833333333333
2016twgss1bgp3,TSOI WING TUNG,2.0,1.6666666666666665,0.14285714285714285,0.20370370370370366
2016twgss1bgp3,WONG KAI WING,0.3333333333333333,0.6666666666666666,0.1,0.0
2016twgss1dgp5,WONG YUNG TAK,0.3333333333333333,0.3333333333333333,0.1,1.7841269841269842
2016twgss1dgp5,YU SZE KI,0.3333333333333333,1.3333333333333333,0.24489795918367346,0.9814814814814815
2016twgss1dgp5,LO WING YAN,5.333333333333333,3.0,0.2857142857142857,0.018518518518518517
2016twgss1dgp5,WONG YU YAN,0.6666666666666666,2.0,0.1,0.7023809523809523
2016twgss1dgp7,CHAN JOANNA,0.0,0.0,0.1,3.9703703703703703
2016twgss1dgp7,FONG TSZ YAN,3.6666666666666665,2.333333333333333,0.14814814814814814,0.05555555555555555
2016twgss1dgp7,WU BAIFENG,0.0,0.0,0.1,2.446296296296296
2016twgss1dgp7,WONG WAI LAM,1.3333333333333333,2.6666666666666665,0.1,1.1577380952380951
2016twgss2bgp7,WONG KI SUM,0.6666666666666666,0.6666666666666666,0.1,0.19642857142857142
2016twgss2bgp7,TONG MAN HIN,0.0,0.0,0.1,2.931481481481481
2016twgss2bgp7,LAU YIN TUNG,0.0,0.0,0.1,2.0625
2016twgss2bgp7,TSOI YIU LAM,0.0,0.0,0.1,2.512121212121212
2016twgss2bgp9,KWOK SIN YAU,0.3333333333333333,0.0,0.14285714285714285,1.3387301587301588
2016twgss2bgp9,LEUNG HOI MING,0.0,0.0,0.1,2.710084033613445
2016twgss2bgp9,TANG LAI WA,0.6666666666666666,1.0,0.1,0.5729166666666665
2016twgss2bgp9,LEE SIN YAU,0.0,0.0,0.1,1.3714285714285712
2016twgss2dgp3,NG KA WING,0.0,0.0,0.1,2.060666253715361
2016twgss2dgp3,WONG CHO NGAI,0.25,0.25,0.1,1.338146337973642
2016twgss2dgp3,WONG MEI LING,0.0,0.0,0.1,2.418191397733618
2016twgss2dgp3,YEUNG YIN WING,0.0,0.0,0.1,3.5725336090261504
2016twgss2dgp3,CHOW SIN,0.0,0.0,0.1,2.090268469772893
2016twgss2dgp6,MOK TSZ HUI,0.0,0.0,0.1,2.6146432146432144
2016twgss2dgp6,WONG HIU CHING,0.25,0.25,0.1,0.6685185185185185
2016twgss2dgp6,PENG CHUNG YING,0.0,0.0,0.1,1.5434920634920637
2016twgss2dgp6,WONG HIU LAAM,0.0,0.0,0.1,5.526402482663352
2016twgss2dgp6,WAN MAN HEI,0.0,0.0,0.1,0.6833333333333333
2016twgss3bgp3,HO CHEUK TUNG,0.0,0.0,0.1,2.857551638176638
2016twgss3bgp3,SIU WING CHIN,0.0,0.0,0.1,1.9338675213675214
2016twgss3bgp3,YEUNG TSZ HIN,0.25,0.25,0.1,1.717053495803496
2016twgss3bgp3,YAN CHUN YIN,0.0,0.0,0.1,1.1319444444444444
2016twgss3bgp3,TSUI YUK WAI,0.0,0.0,0.1,1.9382539682539683
2016twgss3bgp6,MAK TRUDY,0.0,0.0,0.1,1.4261717136467302
2016twgss3bgp6,WU PAK LAM,0.25,0.25,0.1,1.0727279274070844
2016twgss3bgp6,YU KWAN YUEN,0.0,0.0,0.1,2.3361647894038065
2016twgss3bgp6,CHAU YEE LAAM,0.0,0.0,0.1,3.805353976554181
2016twgss3bgp6,WONG CHAK HONG,0.0,0.0,0.1,1.548611111111111
2016twgss3cgp5,FAN WAI TING WANDY,1.0,1.75,0.1,1.2838439629845304
2016twgss3cgp5,CHAN SIN HANG,0.0,0.0,0.1,3.8556075730929935
2016twgss3cgp5,SUEN MAN LOK,2.25,1.75,0.13186813186813187,0.5676333893141803
2016twgss3cgp5,LEE CHUNG YAU,0.25,0.0,0.17910447761194032,2.0871108570671173
2016twgss3cgp5,KWONG YUEN TING,0.0,0.0,0.1,4.073806703037157
2016twgss3dgp7,LEE CHEUK FEI,1.25,1.25,0.32432432432432434,0.016666666666666666
2016twgss3dgp7,CHUNG KAM HO,0.0,0.0,0.1,5.617297979797979
2016twgss3dgp7,MA PIK SIN,1.0,1.5,0.31578947368421056,0.3333333333333333
2016twgss3dgp7,PANG PUI YEE,2.25,0.75,0.35820895522388063,0.0
2016twgss3dgp7,KWAN CHI CHUNG,1.0,2.0,0.1,1.2123885918003565
2016kyc4kgp1,朱泓樺,0.25,0.5,0.1,1.9003461469787197
2016kyc4kgp1,謝君廷,1.25,1.75,0.1,0.6662966319978515
2016kyc4kgp1,李諾民,1.0,0.75,0.13114754098360656,0.6377413127413126
2016kyc4kgp1,陳希南,0.5,0.0,0.2962962962962963,2.3558320170147136
2016kyc4kgp1,廖銘希,0.0,0.0,0.1,2.527442547277142
2016kyc4kgp2,陳瀚宇,0.0,0.0,0.1,5.4534279577383025
2016kyc4kgp2,梁偉均,0.0,0.0,0.1,2.734355044699872
2016kyc4kgp2,黃雋霖,0.25,0.25,0.12903225806451613,1.016868686868687
2016kyc4kgp2,何灝謙,1.5,1.25,0.17391304347826086,0.3831867664051572
2016kyc4kgp2,吳海航,0.25,0.5,0.12903225806451613,0.5333333333333333
2016kyc4kgp3,李朗,0.25,0.25,0.1,2.2675832130615374
2016kyc4kgp3,石曉朗,0.75,0.75,0.17391304347826086,0.24979299352237172
2016kyc4kgp3,陳均圖,0.0,0.25,0.1,3.1281870379358248
2016kyc4kgp3,高烱崳,3.5,3.25,0.18181818181818182,0.10483870967741934
2016kyc4kgp3,胡焯澧,0.25,0.25,0.1,0.686263139209745
2016kyc4kgp4,李文浚,1.0,1.0,0.1,0.2222222222222222
2016kyc4kgp4,張世光,0.6666666666666666,0.6666666666666666,0.1,1.5462962962962963
2016kyc4kgp4,江恩琛,0.3333333333333333,0.3333333333333333,0.1,1.324074074074074
2016kyc4kgp4,譚康,2.0,2.0,0.1,0.4444444444444444
2016kyc4kgp5,湯憲文,7.333333333333333,6.333333333333333,0.28346456692913385,0.0
2016kyc4kgp5,蔡翰文,2.6666666666666665,4.0,0.2647058823529412,0.0
2016kyc4kgp5,廖均朗　,4.333333333333333,4.333333333333333,0.2727272727272727,0.0
2016kyc4kgp5,林展銘,0.3333333333333333,0.0,0.6923076923076924,4.833333333333333
2016kyc4kgp6,陳灝明,5.5,5.0,2.6666666666666665,0.0
2016kyc4kgp6,詹欣橋,7.0,7.0,1.7142857142857144,0.0
2016kyc4kgp6,李鎔丞,2.0,2.5,1.6,0.75
2016kyc4sgp1,黃澤燊,0.0,0.0,0.1,1.7916666666666665
2016kyc4sgp1,羅志軒,0.0,0.0,0.1,1.5238095238095237
2016kyc4sgp1,張宏熙,0.0,0.0,0.1,3.337719298245614
2016kyc4sgp1,傅智鋒,2.333333333333333,2.333333333333333,0.1,0.5529100529100528
2016kyc4sgp2,梁若軒,0.0,0.0,0.1,2.341666666666667
2016kyc4sgp2,張耀存,0.3333333333333333,0.3333333333333333,0.1,0.19444444444444442
2016kyc4sgp2,楊智鵬,0.3333333333333333,0.3333333333333333,0.1,0.4444444444444444
2016kyc4sgp2,葉海杰,0.3333333333333333,0.3333333333333333,0.1,1.5789682539682537
2016kyc4sgp3,姚竣甯,2.333333333333333,2.333333333333333,1.0,0.0
2016kyc4sgp3,蘇栢程　,1.3333333333333333,1.6666666666666665,0.6666666666666666,1.0
2016kyc4sgp3,祝眾成,20.666666666666664,20.666666666666664,1.2,0.0
2016kyc4sgp3,古翰滔,1.6666666666666665,1.3333333333333333,1.0,0.16666666666666666
2016kyc4sgp4,衛展同,0.6666666666666666,1.0,0.6666666666666666,0.0
2016kyc4sgp4,黨浩樑,11.333333333333332,10.333333333333332,1.5,0.0
2016kyc4sgp4,鍾英偉,0.3333333333333333,0.3333333333333333,0.75,2.4166666666666665
2016kyc4sgp4,劉鑾彤,0.0,0.6666666666666666,0.1,2.3888888888888884
2016kyc4sgp5,曹倬僖,0.0,0.0,0.1,4.847619047619047
2016kyc4sgp5,莊逸峻,2.333333333333333,2.333333333333333,0.14285714285714285,0.23809523809523808
2016kyc4sgp5,陳可杰,2.0,1.6666666666666665,0.23076923076923078,0.2809523809523809
2016kyc4sgp5,劉國恒,2.6666666666666665,3.0,0.1,0.23333333333333334
2016kyc4sgp6,黃俊豪,0.0,0.0,0.1,3.5555555555555545
2016kyc4sgp6,翁翱廷,0.0,0.0,0.1,4.886868686868686
2016kyc4sgp6,黃卓晞,2.0,2.333333333333333,0.14285714285714285,0.0
2016kyc4sgp6,江彥君　,5.666666666666666,5.333333333333333,0.14634146341463414,0.0
2016dadechn_agp4,Heliangyi,3.75,3.75,0.32876712328767127,0.1185185185185185
2016dadechn_agp4,Zhangshuhan,0.0,0.0,0.1,4.359824434824435
2016dadechn_agp4,Wangzihan,0.25,0.5,0.27586206896551724,1.6665732959850605
2016dadechn_agp4,Lixianer,5.5,5.25,0.3333333333333333,0.0
2016dadechn_agp4,Huyihan,0.25,0.25,0.2909090909090909,1.0705627705627705
2016kyc4ygp1,李淳希,2.6666666666666665,3.0,0.2608695652173913,0.0
2016kyc4ygp1,陳廣彥,3.0,2.6666666666666665,0.2571428571428572,0.2222222222222222
2016kyc4ygp1,張允青,0.3333333333333333,0.3333333333333333,0.24,0.5
2016kyc4ygp1,黃頌華,0.0,0.0,0.1,4.472222222222221
2016kyc4ygp2,黃昊晴　,1.6666666666666665,2.0,0.1,0.7291666666666666
2016kyc4ygp2,林辰,4.666666666666666,4.0,0.25,0.0
2016kyc4ygp2,陳程浩,0.0,0.0,0.1,2.2333333333333334
2016kyc4ygp2,許瀚森,0.6666666666666666,1.0,0.1,0.763888888888889
2016kyc4ygp3,龍嘉樂,0.6666666666666666,0.3333333333333333,0.23076923076923078,0.12620192307692307
2016kyc4ygp3,鄭啓栢,0.0,0.0,0.1,3.7536907536907536
2016kyc4ygp3,孔邻潮,0.0,0.3333333333333333,0.1,1.7008547008547006
2016kyc4ygp3,黃寶賢,0.3333333333333333,0.3333333333333333,0.14285714285714285,1.213117800074322
2016kyc4ygp4,伍乾信,2.0,1.6666666666666665,1.0,0.0
2016kyc4ygp4,張濬皓,0.0,0.3333333333333333,0.1,2.96984126984127
2016kyc4ygp4,甄志豪,0.0,0.3333333333333333,0.1,1.8777777777777782
2016kyc4ygp4,李劻祐,2.333333333333333,2.0,0.8571428571428571,0.31481481481481477
2016kyc4ygp5,陳駿毅,0.0,0.0,0.1,3.1696969696969703
2016kyc4ygp5,郭東承,1.6666666666666665,1.3333333333333333,0.14634146341463414,0.0
2016kyc4ygp5,司徒浩文,1.6666666666666665,2.0,0.14285714285714285,0.0
2016kyc4ygp5,戚澤,0.0,0.0,0.1,4.968939393939394
2016kyc4ygp8,薛民鉅,0.0,0.0,0.1,4.14021164021164
2016kyc4ygp8,張梓軒,1.0,1.0,0.14285714285714285,0.14393939393939392
2016kyc4ygp8,蘇卓培　,0.3333333333333333,0.3333333333333333,0.1,1.20625
2016kyc4ygp8,何皓庭,1.0,1.0,0.14285714285714285,0.0
2016dadechn_agp5,Luyiwei,0.0,0.0,0.1,3.5625451956335437
2016dadechn_agp5,Mayihang,1.0,0.75,0.12903225806451613,0.9691131082062455
2016dadechn_agp5,Longsiyan,0.75,1.0,0.1,0.8261029411764704
2016dadechn_agp5,Zhangziqian,0.0,0.0,0.1,3.0313582635133303
2016dadechn_agp5,Fangjiran,0.0,0.0,0.1,1.3168024521534036
2016dadechn_agp2,Liuhongshan,3.25,3.25,0.13114754098360656,0.5364445507200171
2016dadechn_agp2,Dongfangxin,0.5,0.5,0.13114754098360656,1.2446705527787534
2016dadechn_agp2,Zhoumofeng,0.0,0.0,0.1,2.7103049456784825
2016dadechn_agp2,Yangyahan,0.0,0.0,0.1,3.344147029112926
2016dadechn_agp2,Luyanwei,0.0,0.0,0.1,0.7849881796690307
2016kyc4jgp1,楊明暉,2.75,2.5,2.055045871559633,0.49404761904761896
2016kyc4jgp1,邵柏朗,12.75,13.25,2.4000000000000004,0.0
2016kyc4jgp1,區境邦,2.0,1.75,2.0119760479041915,0.31249999999999994
2016kyc4jgp1,梁心男,0.25,0.25,0.8571428571428571,5.534422657952068
2016kyc4jgp1,葉偉賢,4.25,4.25,1.705583756345178,0.9606481481481481
2016kyc4jgp2,簡駿樂,0.25,0.0,0.12903225806451613,1.0815728715728716
2016kyc4jgp2,徐智晞,0.5,0.75,0.1,0.1994949494949495
2016kyc4jgp2,湯雋賢,1.75,1.75,0.1,2.122571097883598
2016kyc4jgp2,盧志鏗,0.0,0.0,0.1,2.2595212718713915
2016kyc4jgp2,陳家俊,0.0,0.0,0.1,2.6151410990095743
2016kyc4jgp3,湯諾軒,0.0,0.0,0.1,2.8992530345471517
2016kyc4jgp3,高博淵,0.3333333333333333,0.0,0.24590163934426232,1.0427477388261701
2016kyc4jgp3,陳星宇,2.333333333333333,2.6666666666666665,0.14814814814814814,0.4949494949494949
2016kyc4jgp3,羅灝旻,2.333333333333333,2.333333333333333,0.1485148514851485,0.25925925925925924
2016kyc4jgp4,文得殷,2.333333333333333,2.6666666666666665,0.23076923076923078,0.07142857142857142
2016kyc4jgp4,張孝宁,0.6666666666666666,0.6666666666666666,0.1,2.503174603174603
2016kyc4jgp4,謝棨宇,1.0,1.0,0.24,0.17142857142857143
2016kyc4jgp4,關仕康,2.6666666666666665,2.333333333333333,0.25,0.27142857142857146
2016kyc4jgp5,黃宇軒,0.0,0.0,0.1,4.503703703703704
2016kyc4jgp5,黎凱弘,0.0,0.3333333333333333,0.1,1.9476190476190478
2016kyc4jgp5,戚紫龍,0.0,0.0,0.1,2.3126780626780628
2016kyc4jgp5,吳嘉豪,4.0,3.6666666666666665,0.14285714285714285,0.16388888888888886
2016kyc4jgp6,何銘澤,0.6666666666666666,0.6666666666666666,0.14285714285714285,0.19047619047619047
2016kyc4jgp6,楊展翹,3.0,3.0,0.14285714285714285,0.32251082251082247
2016kyc4jgp6,龐子博,0.0,0.0,0.1,1.4743589743589745
2016kyc4jgp6,林璟佑,0.6666666666666666,0.6666666666666666,0.1,1.6056848852901484
2016dadechn_agp1,Chenanhao,0.0,0.0,0.1,2.911676743588508
2016dadechn_agp1,Luyuzhe,1.25,1.25,0.13186813186813187,0.5586980429131592
2016dadechn_agp1,Liuxianzhu,0.0,0.0,0.1,3.263599574732549
2016dadechn_agp1,Luohanhui,3.75,3.75,0.13186813186813187,0.3332738095238095
2016dadechn_agp1,Xiaoxinyi,0.0,0.0,0.1,1.473769286269286
2016dadechn_agp3,Zengyaoyao,1.0,1.0,0.12903225806451613,0.38515721120984275
2016dadechn_agp3,Chenquanrui,0.0,0.0,0.1,2.2245978271141156
2016dadechn_agp3,Zhangchen,1.25,1.25,0.1,1.8284303955716696
2016dadechn_agp3,Dengzhexi,0.0,0.0,0.1,3.3969097167626576
2016dadechn_agp3,Zhangjinxuan,0.75,0.75,0.12903225806451613,0.11458333333333333
2016kyc4ygp6,談展灃,0.0,0.0,0.1,4.6998556998557
2016kyc4ygp6,何顯恒,0.0,0.0,0.1,1.5238095238095237
2016kyc4ygp6,羅梓維,2.0,1.6666666666666665,0.14285714285714285,0.30925925925925923
2016kyc4ygp6,陳子翹,0.6666666666666666,1.0,0.1,0.7555555555555555
2016twgss1agp9,CHOW LOK YI,0.0,0.0,0.1,3.636243386243386
2016twgss1agp9,LI LAM CHUN,0.3333333333333333,0.3333333333333333,0.14285714285714285,0.8636363636363635
2016twgss1agp9,LEE YIU CHUN,0.0,0.0,0.1,3.1060954296248413
2016twgss1agp9,LO SZE YU,3.333333333333333,3.333333333333333,0.14285714285714285,0.10606060606060605
2016twgss3dgp8,LEUNG KA TO,2.0,2.5,1.1428571428571428,0.19722222222222222
2016twgss3dgp8,NG WING TUNG,2.0,2.0,1.3793103448275863,0.03273809523809523
2016twgss3dgp8,SUN JOY SZE JOYCE,2.25,2.0,1.3793103448275863,0.05357142857142856
2016twgss3dgp8,TANG CHEUK FUNG,1.75,1.5,1.0,0.2791666666666667
2016twgss3dgp8,WOO HUI KA,1.25,1.25,0.9523809523809523,0.3958333333333333
2016dademath_agp4,Zhangrongshiyu,0.0,0.0,0.1,2.8676626072464835
2016dademath_agp4,Wangleibeier,0.0,0.0,0.1,6.392815101342515
2016dademath_agp4,Chenwanyu,0.0,0.0,0.1,5.190024279032632
2016dademath_agp4,Heliangyi,1.8,1.8,0.12195121951219512,0.4180361829751502
2016dademath_agp4,Lixianer,0.8,0.8,0.12195121951219512,0.504631636970809
2016dademath_agp4,Huyihan,0.0,0.0,0.1,2.739294431207592
2016dademath_agp5,Lijiaqi,0.0,0.0,0.1,2.4416281369674526
2016dademath_agp5,Jiangyuanhang,0.0,0.0,0.1,1.4253045227032692
2016dademath_agp5,Weijinan,0.0,0.0,0.1,1.7803332285640492
2016dademath_agp5,Mayihang,0.2,0.0,0.12195121951219512,0.8209217865467866
2016dademath_agp5,Panxinglin,0.8,1.0,0.1,1.7184791856668291
2016dademath_agp5,Zhangziqian,0.0,0.0,0.1,3.6734974092769854
2016twgss1cgp2,YEUNG CHUNG HIN,2.6666666666666665,2.0,0.25,0.0
2016twgss1cgp2,WONG LOK CHUN EUNICE,0.3333333333333333,0.3333333333333333,0.1,0.6666666666666666
2016twgss1cgp2,YEUNG WANG CHAK,1.6666666666666665,2.0,0.1,1.3611111111111112
2016twgss1cgp2,CHEUNG HO YI,0.6666666666666666,1.0,0.1,1.0208333333333333
2016dademath_agp2,Fukuangning,0.0,0.0,0.1,2.6564121988384346
2016dademath_agp2,Zhoumofeng,0.0,0.0,0.1,0.6036373485669261
2016dademath_agp2,Hezhehan,0.0,0.0,0.1,2.4704322863897334
2016dademath_agp2,Zouzonglun,0.0,0.0,0.1,3.610182980414907
2016dademath_agp2,Yangyahan,0.0,0.0,0.1,3.051247800451092
2016dademath_agp2,Licaiyi,0.2,0.2,0.1,2.5483714218735933
2016twgss1cgp1,YUNG WING HAN,1.3333333333333333,1.6666666666666665,0.23076923076923078,0.4305555555555556
2016twgss1cgp1,PAN YUK KWAN,0.3333333333333333,0.6666666666666666,0.23076923076923078,2.5
2016twgss1cgp1,LIN HO YAN,1.3333333333333333,1.3333333333333333,0.25,0.19444444444444442
2016twgss1cgp1,CHEUNG SZE YUEN,1.6666666666666665,1.0,0.75,0.5
2016twgss1cgp5,YUEN LOK YI,1.6666666666666665,1.0,0.2608695652173913,0.5499999999999999
2016twgss1cgp5,YE YU YAN,0.6666666666666666,0.3333333333333333,0.5454545454545454,1.0666666666666667
2016twgss1cgp5,YUEN YU PUI,1.0,3.333333333333333,0.24,0.0
2016twgss1cgp5,CHAN IP,2.0,0.6666666666666666,0.2769230769230769,0.0
2016twgss3dgp2,SHIU CHUN HEI MICHAEL,1.0,1.3333333333333333,0.5454545454545454,0.30000000000000004
2016twgss3dgp2,HUNG CHUI MAN,0.6666666666666666,0.3333333333333333,0.8571428571428571,1.1
2016twgss3dgp2,LEUNG KAM YAN,0.6666666666666666,0.6666666666666666,0.6666666666666666,2.4111111111111114
2016twgss3dgp2,LAU CHING HEI,1.0,1.0,0.6666666666666666,0.5
2016twgss3dgp3,FU SAU KWAN WINCENT,0.25,0.25,0.47058823529411764,2.6075406075406073
2016twgss3dgp3,YIP KA YING,0.5,0.5,0.5333333333333333,0.3947191697191697
2016twgss3dgp3,LAU SUET CHING,1.25,0.75,0.6153846153846154,0.25064338235294115
2016twgss3dgp3,LI YAN YI,0.75,1.25,0.1,1.5577876984126986
2016twgss3dgp3,KWAN HOK LAM OSWIN,0.25,0.25,0.42105263157894735,1.4089781746031744
2016twgss3dgp5,LAU HOI CHUN,0.75,1.25,0.18181818181818182,0.13672341696535242
2016twgss3dgp5,LIU SHENAO,0.0,0.0,0.1,4.9002185415228885
2016twgss3dgp5,LEUNG HIU LAM,1.75,1.5,0.18461538461538463,0.4201501623376623
2016twgss3dgp5,SEE PO YIN,0.0,0.0,0.1,2.8275132275132275
2016twgss3dgp5,IP KA MAN,1.0,0.75,0.18181818181818182,0.027777777777777776
2016twgss1dgp9,LI WAN YAU,0.0,0.0,0.1,7.466666666666666
2016twgss1dgp9,MAK SZE LUI,1.3333333333333333,1.6666666666666665,0.24,0.16944444444444443
2016twgss1dgp9,LAI TSZ TUNG,1.3333333333333333,1.3333333333333333,0.25,0.06944444444444443
2016twgss1dgp9,LAM CHAU YIN,1.3333333333333333,1.0,0.2608695652173913,0.06944444444444443
2016dademath_agp6,Liyuanlin,0.0,0.0,0.1,0.5333333333333333
2016dademath_agp6,Zhuwenyan,0.0,0.0,0.1,2.7868749999999993
2016dademath_agp6,Caishuangmin,0.0,0.0,0.1,2.2937908496732025
2016dademath_agp6,Chentaiming,0.5,0.5,0.1,1.1219135802469138
2016dademath_agp6,Liuqingyang,0.0,0.0,0.1,3.608133957092291
2016dademath_agp1,Chenanhao,0.0,0.0,0.1,3.035139692647491
2016dademath_agp1,Luyuzhe,1.5,1.0,0.13186813186813187,0.3932160418889257
2016dademath_agp1,Liuxianzhu,0.0,0.0,0.1,3.1729543676946834
2016dademath_agp1,Luohanhui,0.25,0.75,0.12903225806451613,1.1672210412837947
2016dademath_agp1,Xiaoxinyi,0.0,0.0,0.1,2.1750572470849368
2016dademath_agp3,Chenmile,0.0,0.0,0.1,4.610566028902696
2016dademath_agp3,Zengyaoyao,0.0,0.0,0.1,3.5286092665457236
2016dademath_agp3,Chenquanrui,0.0,0.0,0.1,2.1843697683632195
2016dademath_agp3,Penglanxin,0.2,0.2,0.1,1.1222348888630471
2016dademath_agp3,Dengzhexi,0.0,0.0,0.1,3.424825552656443
2016dademath_agp3,Zhangjinxuan,0.0,0.0,0.1,2.138442222136987
2016dademath_bgp1,Chenanhao,0.0,0.0,0.1,2.9851855595963253
2016dademath_bgp1,Luyuzhe,0.25,0.25,0.1,0.4839844811859737
2016dademath_bgp1,Liuxianzhu,0.0,0.0,0.1,3.4273131884773513
2016dademath_bgp1,Luohanhui,0.0,0.0,0.1,0.5346534653465347
2016dademath_bgp1,Xiaoxinyi,0.0,0.0,0.1,2.2442840998732025
2016dademath_bgp5,Lijiaqi,0.0,0.0,0.1,3.876154821011352
2016dademath_bgp5,Jiangyuanhang,0.2,0.0,0.12195121951219512,2.4168740487867577
2016dademath_bgp5,Weijinan,0.0,0.0,0.1,2.2826984219353017
2016dademath_bgp5,Mayihang,0.2,0.2,0.1,0.9170064793180006
2016dademath_bgp5,Panxinglin,0.6000000000000001,0.8,0.1,0.4845774144554633
2016dademath_bgp5,Zhangziqian,0.0,0.0,0.1,3.19227627639357
2016dadechn_bgp3,Zengyaoyao,2.75,2.5,0.13114754098360656,0.36190476190476184
2016dadechn_bgp3,Chenquanrui,0.0,0.0,0.1,1.8467549523526332
2016dadechn_bgp3,Zhangchen,0.75,1.0,0.12903225806451613,0.5436353796491672
2016dadechn_bgp3,Dengzhexi,0.0,0.0,0.1,3.294932903848287
2016dadechn_bgp3,Zhangjinxuan,0.0,0.0,0.1,4.431477252783367
2016dadechn_bgp6,Luoanqi,2.75,3.25,0.13186813186813187,0.18407334087481148
2016dadechn_bgp6,Chensitong,4.0,3.5,0.13245033112582782,0.4283786299329858
2016dadechn_bgp6,Caishuangmin,0.0,0.0,0.1,3.446456527136391
2016dadechn_bgp6,Cuiranran,0.0,0.0,0.1,4.11830691791242
2016dadechn_bgp6,Liuqingyang,0.0,0.0,0.1,3.495470397047133
2016dadechn_bgp1,Chenanhao,0.0,0.0,0.1,2.4938111613225082
2016dadechn_bgp1,Luyuzhe,0.0,0.0,0.1,2.507608267004115
2016dadechn_bgp1,Liuxianzhu,0.25,0.0,0.12903225806451613,1.209372211066488
2016dadechn_bgp1,Luohanhui,0.75,1.0,0.1,1.0620781950140503
2016dadechn_bgp1,Xiaoxinyi,0.0,0.0,0.1,1.6170735129068463
2016dademath_bgp3,Chenmile,0.4,0.0,0.12345679012345678,2.362661917433757
2016dademath_bgp3,Zengyaoyao,1.4000000000000001,1.8,0.1,0.5321526482068059
2016dademath_bgp3,Chenquanrui,0.0,0.0,0.1,3.476283021461089
2016dademath_bgp3,Penglanxin,0.0,0.0,0.1,4.699858480445743
2016dademath_bgp3,Dengzhexi,0.0,0.0,0.1,1.0928376787376537
2016dademath_bgp3,Zhangjinxuan,0.0,0.0,0.1,3.1702848030971547
2016dadechn_bgp5,Luyiwei,0.75,0.75,0.1,0.9922305764411027
2016dadechn_bgp5,Mayihang,0.0,0.0,0.1,2.938074240860619
2016dadechn_bgp5,Longsiyan,0.0,0.0,0.1,2.422175669251692
2016dadechn_bgp5,Zhangziqian,0.0,0.0,0.1,3.265796075651597
2016dadechn_bgp5,Fangjiran,0.0,0.0,0.1,1.1535087719298245
2016dadechn_bgp2,Liuhongshan,2.25,1.5,0.13245033112582782,0.13513814616755793
2016dadechn_bgp2,Dongfangxin,1.25,2.0,0.13114754098360656,0.14118118401206636
2016dadechn_bgp2,Zhoumofeng,0.0,0.0,0.1,3.031089582686221
2016dadechn_bgp2,Yangyahan,0.0,0.0,0.1,4.169229987802026
2016dadechn_bgp2,Luyanwei,0.0,0.0,0.1,3.1381535394651707
2016dadechn_bgp4,Heliangyi,1.0,0.75,0.18181818181818182,0.0
2016dadechn_bgp4,Zhangshuhan,0.0,0.0,0.1,4.014263344226579
2016dadechn_bgp4,Wangzihan,0.0,0.0,0.1,4.873772631658028
2016dadechn_bgp4,Lixianer,3.25,3.5,0.17391304347826086,0.0
2016dadechn_bgp4,Huyihan,0.5,0.5,0.17391304347826086,0.30597250394410636
2016dademath_bgp4,Zhangrongshiyu,0.0,0.0,0.1,2.967107865198191
2016dademath_bgp4,Wangleibeier,0.0,0.0,0.1,4.225327015135494
2016dademath_bgp4,Chenwanyu,0.4,0.0,0.22388059701492538,1.9273611924113518
2016dademath_bgp4,Heliangyi,2.0,2.4000000000000004,0.16216216216216214,0.0
2016dademath_bgp4,Lixianer,1.0,1.2000000000000002,0.15873015873015872,0.4266849309105781
2016dademath_bgp4,Huyihan,0.6000000000000001,0.4,0.16129032258064516,2.9384665948989244
2016twgss3cgp6,CHAN KA YI,0.0,0.0,0.1,1.998148148148148
2016twgss3cgp6,AU YEUNG KWONG FAI,0.25,0.25,0.1,1.5855633383045664
2016twgss3cgp6,CHAN LONG,0.0,0.0,0.1,2.388854977753059
2016twgss3cgp6,CHENG MANDY MAN CHING,0.0,0.0,0.1,0.7672043010752688
2016twgss3cgp6,CHAN MING YIN,0.0,0.0,0.1,3.9418772479482245
2016twgss3bgp2,CHEUNG WING KEI BELLE KATES,0.25,0.25,0.27586206896551724,5.2093837535014
2016twgss3bgp2,CHAN KWAN YIN,1.25,1.25,0.3076923076923077,0.0
2016twgss3bgp2,CHAU HO YIN,1.0,0.75,0.2857142857142857,0.08630279034690798
2016twgss3bgp2,LAM HIU YI,0.0,0.0,0.1,6.620650183150183
2016twgss3bgp2,LIN YANGYUE,1.0,1.25,0.2857142857142857,0.1130952380952381
2016dademath_bgp6,Liyuanlin,0.0,0.0,0.1,2.058000918028903
2016dademath_bgp6,Zhuwenyan,0.0,0.0,0.1,2.1545663676098457
2016dademath_bgp6,Caishuangmin,0.0,0.0,0.1,1.018719806763285
2016dademath_bgp6,Chentaiming,0.25,0.25,0.1,0.6276640139751553
2016dademath_bgp6,Liuqingyang,0.0,0.0,0.1,3.466868686868687
2016dadechn_cgp4,Heliangyi,0.5,0.25,0.12903225806451613,0.5696589827557431
2016dadechn_cgp4,Zhangshuhan,0.0,0.0,0.1,2.6032233530222006
2016dadechn_cgp4,Wangzihan,0.0,0.0,0.1,1.305737323893299
2016dadechn_cgp4,Lixianer,1.25,1.5,0.1,0.8696797178787126
2016dadechn_cgp4,Huyihan,0.0,0.0,0.1,2.964795833218038
2016dadechn_cgp2,Liuhongshan,0.25,0.25,0.1,1.0860021786492373
2016dadechn_cgp2,Dongfangxin,0.0,0.0,0.1,1.2361575009750736
2016dadechn_cgp2,Zhoumofeng,0.0,0.0,0.1,3.8431712962962963
2016dadechn_cgp2,Yangyahan,0.0,0.0,0.1,1.3963607594936707
2016dadechn_cgp2,Luyanwei,0.0,0.0,0.1,2.7857615482656604
2016dadechn_cgp6,Luoanqi,0.5,0.25,0.13114754098360656,1.398309644633174
2016dadechn_cgp6,Chensitong,0.5,0.75,0.12903225806451613,0.24453024453024452
2016dadechn_cgp6,Caishuangmin,0.0,0.0,0.1,1.2989632634663062
2016dadechn_cgp6,Cuiranran,0.0,0.0,0.1,3.4697529026044913
2016dadechn_cgp6,Liuqingyang,0.0,0.0,0.1,2.8742454975720695
2016dadechn_cgp5,Luyiwei,0.0,0.0,0.1,2.011043344540881
2016dadechn_cgp5,Mayihang,0.0,0.0,0.1,1.9381195859524036
2016dadechn_cgp5,Longsiyan,0.25,0.25,0.1,0.5299823633156966
2016dadechn_cgp5,Zhangziqian,0.0,0.0,0.1,3.9219136997591755
2016dadechn_cgp5,Fangjiran,0.0,0.0,0.1,1.9465602936867303
2016twgss2cgp4,LAM CHING MAN,5.0,4.333333333333333,0.2608695652173913,0.023809523809523808
2016twgss2cgp4,WONG SUM YIN,0.0,0.0,0.1,4.217803030303029
2016twgss2cgp4,YEUNG CHING YAN VANNESSA,3.6666666666666665,4.0,0.23076923076923078,0.17857142857142855
2016twgss2cgp4,KWOK HO MING,0.0,0.3333333333333333,0.1,2.0848484848484845
2016dadechn_dgp4,Heliangyi,0.0,0.0,0.1,2.723897707231041
2016dadechn_dgp4,Zhangshuhan,0.0,0.0,0.1,2.1748927716826945
2016dadechn_dgp4,Wangzihan,0.0,0.0,0.1,3.00678139747654
2016dadechn_dgp4,Lixianer,3.0,3.0,0.1,0.9020381349729175
2016dadechn_dgp4,Huyihan,0.0,0.0,0.1,1.7875
2016twgss2cgp1,AU HOI TING,0.0,0.0,0.1,1.9281045751633985
2016twgss2cgp1,KWAN KA MING,0.3333333333333333,0.3333333333333333,0.1,1.0875
2016twgss2cgp1,TANG YAN NING,1.0,0.6666666666666666,0.14285714285714285,0.5026455026455026
2016twgss2cgp1,LAU HIU YU,0.6666666666666666,1.0,0.1,0.8345959595959596
2016dadechn_dgp3,Zengyaoyao,2.75,2.5,0.12903225806451613,0.265976430976431
2016dadechn_dgp3,Chenquanrui,0.0,0.0,0.1,2.2769079424251837
2016dadechn_dgp3,Zhangchen,0.0,0.0,0.1,3.340884604872255
2016dadechn_dgp3,Dengzhexi,0.0,0.25,0.1,2.0533730158730155
2016dadechn_dgp3,Zhangjinxuan,0.0,0.0,0.1,1.972950892068539
2016dadechn_dgp2,Liuhongshan,0.25,0.25,0.1,0.5023088023088023
2016dadechn_dgp2,Dongfangxin,0.0,0.0,0.1,3.349763374485596
2016dadechn_dgp2,Zhoumofeng,0.0,0.0,0.1,3.5606967983601967
2016dadechn_dgp2,Yangyahan,0.0,0.0,0.1,1.968888888888889
2016dadechn_dgp2,Luyanwei,0.0,0.0,0.1,1.913919191919192
2016dadechn_dgp6,Luoanqi,0.5,0.5,0.12903225806451613,0.48348623753035513
2016dadechn_dgp6,Chensitong,0.75,0.75,0.12903225806451613,0.35429325158491826
2016dadechn_dgp6,Caishuangmin,0.0,0.0,0.1,3.9961916660900174
2016dadechn_dgp6,Cuiranran,0.0,0.0,0.1,4.033641780881803
2016dadechn_dgp6,Liuqingyang,0.0,0.0,0.1,2.0922267218467376
2016twgss2dgp1,CHAU YUEN YIN,0.0,0.0,0.1,3.5069255176231557
2016twgss2dgp1,FANG WAI,0.0,0.0,0.1,2.598952762392663
2016twgss2dgp1,CHEUNG KA YUET,0.0,0.0,0.1,2.584608932523859
2016twgss2dgp1,OH JUN YE,0.0,0.0,0.1,2.358279264493114
2016twgss2dgp1,HO YUEN CHING,0.5,0.5,0.1,0.09848484848484848
